# Fdb version 3
["pdflatex"] 1452113802 "basic.tex" "basic.pdf" "basic" 1452113802
  "C:/Users/Joe/AppData/Local/Programs/MiKTeX 2.9/tex/latex/base/article.cls" 1446022676 20708 96f8bca6e380179cada1d49716376167 ""
  "C:/Users/Joe/AppData/Local/Programs/MiKTeX 2.9/tex/latex/base/fontenc.sty" 1446022676 4572 f29f75cfae3acaf4667f1979db655af9 ""
  "C:/Users/Joe/AppData/Local/Programs/MiKTeX 2.9/tex/latex/base/inputenc.sty" 1446022674 5619 3f48adceb9004b3fefe24c2d2df7d98e ""
  "C:/Users/Joe/AppData/Local/Programs/MiKTeX 2.9/tex/latex/base/omsenc.dfu" 1446022676 2005 7c2d714aaabaaea61849505248223f63 ""
  "C:/Users/Joe/AppData/Local/Programs/MiKTeX 2.9/tex/latex/base/ot1enc.dfu" 1446022676 3182 b53a533f1102cf7a2bd05abd8c36f5cc ""
  "C:/Users/Joe/AppData/Local/Programs/MiKTeX 2.9/tex/latex/base/size10.clo" 1446022676 9179 632e23fed01c842f2eaef1dd9953a446 ""
  "C:/Users/Joe/AppData/Local/Programs/MiKTeX 2.9/tex/latex/base/t1enc.def" 1446022676 9327 bf6addf718ff386725227c5b52941e7e ""
  "C:/Users/Joe/AppData/Local/Programs/MiKTeX 2.9/tex/latex/base/t1enc.dfu" 1446022676 8042 3f4a6e08c01d3f356d68475717820651 ""
  "C:/Users/Joe/AppData/Local/Programs/MiKTeX 2.9/tex/latex/base/utf8.def" 1446022676 7785 611d77e97e4abe4e551c78110cc11963 ""
  "C:/Users/Joe/AppData/Local/Programs/MiKTeX 2.9/tex/latex/lm/lmodern.sty" 1256929440 1606 c17281c7cff2bbd7ff0173e1433487ec ""
  "C:/Users/Joe/AppData/Local/Programs/MiKTeX 2.9/tex/latex/lm/t1lmr.fd" 1256929440 1865 afbfccbe7fda9c2dc5078ad7c486bbed ""
  "basic.aux" 1452113280 168 15f3b3afc1e3fff30f864b310ed49fba ""
  "basic.tex" 1452113802 195 0ac1f6aa8144c819aee412e416c6a63e ""
  (generated)
  "basic.pdf"
  "basic.aux"
  "basic.log"
